[
  {
    "title" : "Blog Post #1",
    "image": "img/fishing-blog-1.jpg",
    "content": "Lorem ipsum dolor sit amet, consectetur adipisicing elit. Asperiores in iusto odio praesentium quisquam, temporibus velit. Accusantium ad assumenda dignissimos doloremque eveniet nihil qui vero. Enim inventore maxime pariatur quos.",
    "category":[
      "family",
      "concerts",
      "food",
      "drink",
      "events"
    ],
    "date": "June 1, 2020"
  },
  {
    "title" : "Blog Post #2",
    "image": "img/fishing-blog-2.jpg",
    "content": "Lorem ipsum dolor sit amet, consectetur adipisicing elit. Asperiores in iusto odio praesentium quisquam, temporibus velit. Accusantium ad assumenda dignissimos doloremque eveniet nihil qui vero. Enim inventore maxime pariatur quos.",
    "category":[

      "concerts",
      "family",
      "food",
      "drink",
      "events"
    ],
    "date": "June 1, 2020"
  },
  {
    "title" : "Blog Post #3",
    "image": "img/fishing-blog-3.jpg",
    "content": "Lorem ipsum dolor sit amet, consectetur adipisicing elit. Asperiores in iusto odio praesentium quisquam, temporibus velit. Accusantium ad assumenda dignissimos doloremque eveniet nihil qui vero. Enim inventore maxime pariatur quos.",
    "category":[
      "family",
      "concerts",
      "food",
      "drink",
      "events"
    ],
    "date": "June 1, 2020"
  },
  {
    "title" : "Blog Post #4",
    "image": "img/fishing-blog-4.jpg",
    "content": "Lorem ipsum dolor sit amet, consectetur adipisicing elit. Asperiores in iusto odio praesentium quisquam, temporibus velit. Accusantium ad assumenda dignissimos doloremque eveniet nihil qui vero. Enim inventore maxime pariatur quos.",
    "category":[
      "family",
      "concerts",
      "food",
      "drink",
      "events"
    ],
    "date": "June 1, 2020"
  },
  {
    "title" : "Blog Post #5",
    "image": "img/fishing-blog-5.jpg",
    "content": "Lorem ipsum dolor sit amet, consectetur adipisicing elit. Asperiores in iusto odio praesentium quisquam, temporibus velit. Accusantium ad assumenda dignissimos doloremque eveniet nihil qui vero. Enim inventore maxime pariatur quos.",
    "category":[
      "family",
      "concerts",
      "food",
      "drink",
      "events"
    ],
    "date": "June 1, 2020"
  }
]
